STAT765 Assignment - 2 Data Processing
…
  filter(dttm >= dmy(01042022),
         dttm < dmy(01052022)) |> 
  group_by(day(dttm)) |> 
  summarise(Use = sum(Use),
            Gen = -sum(Gen),
            NetUse = sum(NetUse),
            Import = sum(Import),
            Export = -sum(Export)
            ) |> 
  rename(Day = `day(dttm)`) |>
  mutate(NetImport = Import + Export) |> 
  mutate(across(where(is.numeric) & !Day, ~ round(., digits = 1))) |> 
  print()

# A tibble: 30 × 7
     Day   Use    Gen NetUse Import Export NetImport
   <int> <dbl>  <dbl>  <dbl>  <dbl>  <dbl>     <dbl>
 1     1  164. -137.    26.5   91    -64.5      26.5
 2     2  157. -136.    20.9   89.7  -68.7      20.9
 3     3  174. -154     20.1  107.   -86.7      20.1
 4     4  159. -108.    51.2  110.   -58.3      51.2
 5     5  156.  -64.2   92.2  109.   -17        92.2
 6     6  172. -124.    47.9  102.   -54.6      47.9
 7     7  180. -168.    12.6  106.   -93.3      12.6
 8     8  152. -116     36.5   92.3  -55.8      36.5
 9     9  164. -174.    -9.5   89.8  -99.3      -9.5
10    10  165. -168.    -3.5   93.2  -96.6      -3.5
# ℹ 20 more rows
…
  filter(dttm >= dmy(01042022),
         dttm < dmy(02042022)) |> 
  group_by(hour(dttm)) |> 
  summarise(Use = sum(Use),
            Gen = -sum(Gen),
            NetUse = sum(NetUse),
            Import = sum(Import),
            Export = -sum(Export)
            ) |> 
  rename(Hour = `hour(dttm)`) |>
  mutate(NetImport = Import + Export) |> 
  mutate(across(where(is.numeric) & !Hour, ~ round(., digits = 1))) |> 
  print()

# A tibble: 24 × 7
    Hour   Use   Gen NetUse Import Export NetImport
   <int> <dbl> <dbl>  <dbl>  <dbl>  <dbl>     <dbl>
 1     0   5.1   0      5.1    5.1      0       5.1
 2     1   4.3   0      4.3    4.3      0       4.3
 3     2   4.2   0      4.2    4.2      0       4.2
 4     3   4.1   0      4.1    4.1      0       4.1
 5     4  11.2   0     11.2   11.2      0      11.2
 6     5   3     0      3      3        0       3  
 7     6   3.1   0      3.1    3.1      0       3.1
 8     7   5.2  -0.1    5.1    5.1      0       5.1
 9     8   7.6  -2.1    5.5    5.5      0       5.5
10     9   8.7  -6.1    2.6    2.6      0       2.6
# ℹ 14 more rows
