STAT765 Assignment - 4 Models
…
4.1 Seasonal Average

Probably the simplest (and most intuitive) model to implement is a seasonal average model. This model calculates the arithmetic mean of NetUse by quarter and hour and applies this as our prediction of net energy consumption for our test data set. It is an ANOVA of sorts, but with a time series twist, and would be a logical place to start when considering the impact of time on energy consumption and generation.

avg <- train |> 
  group_by(quarter,hour) |> 
  summarise(avg = mean(NetUse), .groups = "rowwise")

avg |> mutate(avg = round(avg,2)) |> 
  pivot_wider(names_from = quarter, values_from = avg) |> 
  print()

# A tibble: 24 × 5
   hour    Q01   Q02   Q03   Q04
   <fct> <dbl> <dbl> <dbl> <dbl>
 1 H00    4.91  4.85  5.62  5.4 
 2 H01    4.15  4.15  4.86  4.16
 3 H02    3.44  4.09  4.9   3.52
 4 H03    3.26  4.07  4.78  3.28
 5 H04    8.01 11.5  12.6  11.2 
 6 H05    3.04  3.61  4.2   3.2 
 7 H06    3.09  4.12  4.85  2.87
 8 H07    3.76  5.59  6.32  2.01
 9 H08    0.9   3.39  3.85 -1.69
10 H09   -4.28 -0.69 -0.13 -6.55
# ℹ 14 more rows
…
